%YAML 1.1
%TAG !u! tag:unity3d.com,2011:
--- !u!114 &11400000
MonoBehaviour:
  m_ObjectHideFlags: 0
  m_CorrespondingSourceObject: {fileID: 0}
  m_PrefabInstance: {fileID: 0}
  m_PrefabAsset: {fileID: 0}
  m_GameObject: {fileID: 0}
  m_Enabled: 1
  m_EditorHideFlags: 0
  m_Script: {fileID: 11500000, guid: a37538d5f333e154faf5a4324daef073, type: 3}
  m_Name: 4
  m_EditorClassIdentifier: 
  Image: {fileID: 2800000, guid: f4ef9c41b9a1a054a99c1fc40079141c, type: 3}
  Triangle:
    A: {x: -7.24, y: 1.7}
    B: {x: -7.23, y: 0.6}
    C: {x: -6.85, y: 1.2}
  TriangleColor: {r: 0, g: 0, b: 0, a: 0}
