%YAML 1.1
%TAG !u! tag:unity3d.com,2011:
--- !u!114 &11400000
MonoBehaviour:
  m_ObjectHideFlags: 0
  m_CorrespondingSourceObject: {fileID: 0}
  m_PrefabInstance: {fileID: 0}
  m_PrefabAsset: {fileID: 0}
  m_GameObject: {fileID: 0}
  m_Enabled: 1
  m_EditorHideFlags: 0
  m_Script: {fileID: 11500000, guid: a37538d5f333e154faf5a4324daef073, type: 3}
  m_Name: 9
  m_EditorClassIdentifier: 
  Image: {fileID: 2800000, guid: a5e31a250a0ebfe4fae505931a3dd0ba, type: 3}
  Triangle:
    A: {x: -4.14, y: 0}
    B: {x: -4.13, y: 0.36}
    C: {x: -4.58, y: 0}
  TriangleColor: {r: 0.2392157, g: 0.2627451, b: 0.3137255, a: 1}
