%YAML 1.1
%TAG !u! tag:unity3d.com,2011:
--- !u!114 &11400000
MonoBehaviour:
  m_ObjectHideFlags: 0
  m_CorrespondingSourceObject: {fileID: 0}
  m_PrefabInstance: {fileID: 0}
  m_PrefabAsset: {fileID: 0}
  m_GameObject: {fileID: 0}
  m_Enabled: 1
  m_EditorHideFlags: 0
  m_Script: {fileID: 11500000, guid: fa28fff12ccbc1a4197a0bcd7aa0f8ff, type: 3}
  m_Name: Full Level Collection
  m_EditorClassIdentifier: 
  Levels:
  - {fileID: 11400000, guid: 277ca93358abf2748b7fa5b71366e2dd, type: 2}
  - {fileID: 11400000, guid: cea34f9be9e593c499017166a0011d28, type: 2}
  - {fileID: 11400000, guid: 15c472b0ae6be47489eeb2419e223552, type: 2}
  - {fileID: 11400000, guid: e229de0dfa7095e4fbc4c60312fd3f69, type: 2}
